-------------------------------------------------------------------------------
Test set: com.sapient.week2.day1.EmployeeDAOTest
-------------------------------------------------------------------------------
Tests run: 4, Failures: 0, Errors: 0, Skipped: 0, Time elapsed: 0.063 sec
